Analysis – MA [46]15 Final Project
…
This bar plot displays the top 10 most common arrest demographic groups, broken down by race, sex, and age group. The groups are faceted by age categories: 18–24, 25–44, and 45–64.

Across all age groups, Black males are the most frequently arrested demographic, particularly within the 25–44 age group, where the arrest count significantly outpaces other categories.

White and Hispanic males appear consistently in the top ranks, but with notably lower counts.

Female arrests are much less common overall, although they do appear for some demographics, particularly Black and Hispanic females.

The age group 25–44 dominates in terms of volume, highlighting it as the most common age bracket for arrests in this dataset.

This visualization suggests substantial racial and gender disparities in arrest patterns, and motivates further statistical analysis to investigate potential structural or socioeconomic drivers behind these patterns.

Logistic Regression: Predicting Non-Violent Arrests

# A tibble: 40 × 7
   term                 estimate std.error statistic  p.value conf.low conf.high
   <chr>                   <dbl>     <dbl>     <dbl>    <dbl>    <dbl>     <dbl>
 1 (Intercept)             0.415    0.326     -2.69  7.10e- 3    0.214     0.778
 2 perp_raceASIAN / PA…    0.848    0.340     -0.486 6.27e- 1    0.441     1.69 
 3 perp_raceBLACK          0.674    0.327     -1.21  2.27e- 1    0.360     1.31 
 4 perp_raceBLACK HISP…    1.06     0.338      0.167 8.67e- 1    0.552     2.10 
 5 perp_raceUNKNOWN        0.520    0.439     -1.49  1.36e- 1    0.218     1.23 
 6 perp_raceWHITE          1.04     0.327      0.120 9.04e- 1    0.554     2.02 
 7 perp_raceWHITE HISP…    0.812    0.328     -0.633 5.27e- 1    0.432     1.58 
 8 perp_sexM               0.886    0.0111   -10.9   7.99e-28    0.867     0.906
 9 age_group18-24          1.32     0.0271    10.4   3.72e-25    1.26      1.40 
10 age_group25-44          1.45     0.0255    14.5   1.16e-47    1.38      1.52 
# ℹ 30 more rows
…
Odds Ratios greater than 1 indicate higher odds of a non-violent arrest compared to the reference group, while values less than 1 indicate lower odds.

For example:

perp_raceWHITE:unemployment_rate7.0 has an odds ratio of 1.93, suggesting that at 7% unemployment, White individuals are nearly twice as likely to be arrested for non-violent offenses compared to the reference group.

perp_raceBLACK:unemployment_rate9.3 has an odds ratio of 1.49, indicating a similar trend among Black individuals at a higher unemployment level.

These interaction terms highlight how economic context modifies racial disparities in non-violent arrests. Notably, the effect of unemployment is not uniform across race groups. Some odds ratios approach or cross the threshold of 1, suggesting potential non-significant or neutral effects, as also reflected in the p-values.

This visualization enables a clearer interpretation of complex regression output and supports nuanced discussion of demographic disparities.

Interaction Model: Race × Unemployment

# A tibble: 34 × 7
   term                  estimate std.error statistic p.value conf.low conf.high
   <chr>                    <dbl>     <dbl>     <dbl>   <dbl>    <dbl>     <dbl>
 1 perp_raceASIAN / PAC…    0.848     0.340    -0.486  0.627     0.441      1.69
 2 perp_raceASIAN / PAC…    1.33      0.369     0.781  0.435     0.636      2.73
 3 perp_raceASIAN / PAC…    2.05      0.385     1.86   0.0628    0.949      4.33
 4 perp_raceASIAN / PAC…    1.53      0.377     1.13   0.260     0.719      3.17
 5 perp_raceASIAN / PAC…    1.06      0.415     0.146  0.884     0.466      2.39
 6 perp_raceBLACK           0.674     0.327    -1.21   0.227     0.360      1.31
 7 perp_raceBLACK HISPA…    1.06      0.338     0.167  0.867     0.552      2.10
 8 perp_raceBLACK HISPA…    1.56      0.368     1.21   0.225     0.747      3.19
 9 perp_raceBLACK HISPA…    1.42      0.384     0.920  0.358     0.661      3.00
10 perp_raceBLACK HISPA…    1.32      0.373     0.744  0.457     0.624      2.72
# ℹ 24 more rows
…
