Blog Post 3 – MA [46]15 Final Project
…
The following objects are masked from 'package:stats':

    chisq.test, fisher.test

library(lubridate)
cleaned_data <- read_rds("dataset/cleaned_dataset.rds")
race_offense_table <- cleaned_data %>%
  count(perp_race, ofns_desc, sort = TRUE) %>%
  group_by(perp_race) %>%
  slice_max(n, n = 5) %>%
  arrange(perp_race, desc(n))

print(race_offense_table)

# A tibble: 35 × 3
# Groups:   perp_race [7]
   perp_race                      ofns_desc                        n
   <fct>                          <chr>                        <int>
 1 AMERICAN INDIAN/ALASKAN NATIVE Assault 3 & Related Offenses   199
 2 AMERICAN INDIAN/ALASKAN NATIVE Felony Assault                  78
 3 AMERICAN INDIAN/ALASKAN NATIVE Petit Larceny                   78
 4 AMERICAN INDIAN/ALASKAN NATIVE Vehicle And Traffic Laws        58
 5 AMERICAN INDIAN/ALASKAN NATIVE Miscellaneous Penal Law         50
 6 ASIAN / PACIFIC ISLANDER       Assault 3 & Related Offenses  2722
 7 ASIAN / PACIFIC ISLANDER       Felony Assault                1617
 8 ASIAN / PACIFIC ISLANDER       Petit Larceny                 1258
 9 ASIAN / PACIFIC ISLANDER       Miscellaneous Penal Law       1239
10 ASIAN / PACIFIC ISLANDER       Dangerous Drugs                902
# ℹ 25 more rows
…
